5 Simulations – Learn Pmetrics
…
Here are the simulated parameters and covariates for the first subject’s template; note that both wt and age are simulated, using proper covariances with simulated PK parameters.

simdata3$data$parValues

# A tibble: 100 × 7
    nsim    ka     ke  lag1    v0   age    wt
   <int> <dbl>  <dbl> <dbl> <dbl> <dbl> <dbl>
 1     1 0.876 0.0307  1.28 119.   26.0  59.0
 2     2 0.885 0.0272  1.29 113.   26.7  53.1
 3     3 0.893 0.0351  1.22 112.   27.9  43.2
 4     4 0.899 0.0325  1.22 120.   26.7  54.5
 5     5 0.893 0.0329  1.22 119.   28.8  48.8
 6     6 0.834 0.0319  1.51 116.   26.9  46.8
 7     7 0.895 0.0287  1.21 108.   26.3  56.9
 8     8 0.896 0.0237  1.18 120.   29.3  53.4
 9     9 0.879 0.0289  1.21 119.   30.2  44.3
10    10 0.756 0.0597  2.85  52.3  27.7  53.4
# ℹ 90 more rows
…
