Probability of Target Attainment • Pmetrics
…
Summarizing

Like most created Pmetrics objects, PM_pta() objects can
be summarized.

pta1$summary()
#> # A tibble: 36 × 4
#>    sim_num target label         prop_success
#>      <int>  <dbl> <chr>                <dbl>
#>  1       1   0.25 600 mg daily         1    
#>  2       1   0.5  600 mg daily         1    
#>  3       1   1    600 mg daily         1    
#>  4       1   2    600 mg daily         0.999
#>  5       1   4    600 mg daily         0.871
#>  6       1   8    600 mg daily         0.412
#>  7       1  16    600 mg daily         0.021
#>  8       1  32    600 mg daily         0    
#>  9       1  64    600 mg daily         0    
#> 10       2   0.25 1200 mg daily        1    
#> # ℹ 26 more rows
…
pta1$summary(ci = 0.9)
#> # A tibble: 36 × 4
#>    sim_num target label         prop_success
#>      <int>  <dbl> <chr>                <dbl>
#>  1       1   0.25 600 mg daily         1    
#>  2       1   0.5  600 mg daily         1    
#>  3       1   1    600 mg daily         1    
#>  4       1   2    600 mg daily         0.999
#>  5       1   4    600 mg daily         0.871
#>  6       1   8    600 mg daily         0.412
#>  7       1  16    600 mg daily         0.021
#>  8       1  32    600 mg daily         0    
#>  9       1  64    600 mg daily         0    
#> 10       2   0.25 1200 mg daily        1    
#> # ℹ 26 more rows
…
