Summarize Pmetrics Run Cycle Information — makeCycle • Pmetrics
…
#>   [9] 452.7149 452.6453 452.6453 448.5969 448.4804 448.3917 448.3405 448.3009
#>  [17] 448.2713 448.2713 446.7067 445.8884 445.5819 445.5588 445.5471 445.5426
#>  [25] 445.5426 444.4183 443.9666 443.4177 443.0373 442.8305 442.7360 442.7092
#>  [33] 442.6847 442.6652 442.5090 442.2605 442.1442 442.1415 442.1399 442.1396
#>  [41] 442.1369 442.1322 442.1288 442.1267 442.1259 442.1214 442.1164 442.1128
#>  [49] 442.1106 442.1077 442.1014 442.0966 442.0932 442.0902 442.0829 442.0771
#>  [57] 442.0728 442.0681 442.0600 442.0535 442.0486 442.0447 442.0353 442.0278
#>  [65] 442.0218 442.0172 442.0141 442.0124 442.0120 442.0120 441.6645 441.4615
#>  [73] 441.3766 441.3248 441.2395 441.1680 441.1068 441.0444 440.9916 440.8840
#>  [81] 440.7468 440.6802 440.5175 440.4220 440.4022 440.3955 440.3622 440.3499
#>  [89] 440.3384 440.3066 440.2895 440.2692 440.2470 440.2440 440.2243 440.2052
#>  [97] 440.2048 440.1825 440.1657 440.1657
#> 
#> $gamlam
#> # A tibble: 100 × 3
#>    cycle value outeq
#>    <int> <dbl> <chr>
#>  1     1  4.55 1    
#>  2     2  3.79 1    
#>  3     3  2.71 1    
#>  4     4  2.71 1    
#>  5     5  2.71 1    
#>  6     6  2.71 1    
#>  7     7  2.71 1    
#>  8     8  2.58 1    
#>  9     9  2.58 1    
#> 10    10  2.58 1    
#> # ℹ 90 more rows
#> 
#> $mean
#> # A tibble: 100 × 5
#>    cycle    Ka    Ke     V   lag
#>    <int> <dbl> <dbl> <dbl> <dbl>
#>  1     1 1      1    1     1    
#>  2     2 1.01   1.00 0.993 0.997
#>  3     3 1.03   1.01 0.989 0.997
#>  4     4 1.02   1.01 0.995 0.984
#>  5     5 0.994  1.01 0.995 0.983
#>  6     6 0.994  1.01 0.995 0.983
#>  7     7 1.01   1.01 1.01  0.954
#>  8     8 1.00   1.01 1.00  0.949
#>  9     9 1.01   1.01 1.00  0.950
#> 10    10 1.02   1.01 1.00  0.950
#> # ℹ 90 more rows
#> 
#> $sd
#> # A tibble: 100 × 5
#>    cycle    Ka    Ke     V   lag
#>    <int> <dbl> <dbl> <dbl> <dbl>
#>  1     1  1     1    1      1   
#>  2     2  1.03  1.00 0.982  1.00
#>  3     3  1.07  1.01 0.971  1.01
#>  4     4  1.04  1.01 0.973  1.18
#>  5     5  1.03  1.01 0.973  1.18
#>  6     6  1.03  1.01 0.973  1.18
#>  7     7  1.03  1.01 1.01   1.10
#>  8     8  1.03  1.01 1.01   1.14
#>  9     9  1.05  1.01 1.00   1.14
#> 10    10  1.06  1.01 1.00   1.14
#> # ℹ 90 more rows
#> 
#> $median
#> # A tibble: 100 × 5
#>    cycle    Ka    Ke     V   lag
#>    <int> <dbl> <dbl> <dbl> <dbl>
#>  1     1  1     1     1    1    
#>  2     2  1.04  1.00  1.00 1.04 
#>  3     3  1.06  1.00  1.00 1.05 
#>  4     4  1.04  1.00  1.00 0.802
#>  5     5  1.04  1.00  1.00 0.801
#>  6     6  1.04  1.00  1.00 0.801
#>  7     7  1.06  1.00  1.00 0.801
#>  8     8  1.06  1.00  1.00 0.822
#>  9     9  1.06  1.00  1.00 0.825
#> 10    10  1.07  1.00  1.00 0.825
#> # ℹ 90 more rows
…
