Summarize NPAG or IT2B Final Cycle Population Values — makeFinal • Pmetrics
…
#>               Ka         Ke          V      Tlag1
#> Ka     1.0000000 -0.5631637  0.3337615  0.1480606
#> Ke    -0.5631637  1.0000000 -0.4786366  0.1750393
#> V      0.3337615 -0.4786366  1.0000000 -0.6338542
#> Tlag1  0.1480606  0.1750393 -0.6338542  1.0000000
#> 
#> $popMedian
#>          Ka         Ke        V    Tlag1
#> 2 0.7026888 0.04393907 72.47523 1.113296
#> 
#> $popRanFix
#> NULL
#> 
#> $postPoints
#> # A tibble: 96 × 7
#>       id point    Ka     Ke     V  Tlag1     prob
#>    <dbl> <int> <dbl>  <dbl> <dbl>  <dbl>    <dbl>
#>  1     1     1 0.895 0.0232  75.9 1.76   1.67e- 2
#>  2     1     2 0.432 0.0246  66.2 0.534  9.83e- 1
#>  3     2     1 0.900 0.0431 109.  2.10   7.75e- 8
#>  4     2     2 0.793 0.0439 102.  0.887  1.18e- 3
#>  5     2     3 0.748 0.0396 120.  0.0119 9.52e- 1
#>  6     2     4 0.553 0.0439 118.  0.287  4.73e- 2
#>  7     2     5 0.583 0.0683  73.1 1.34   2.13e-10
#>  8     3     1 0.900 0.0431 109.  2.10   1.00e+ 0
#>  9     3     2 0.583 0.0683  73.1 1.34   7.70e- 9
#> 10     4     1 0.898 0.0564 120.  0.688  1.00e+ 0
#> # ℹ 86 more rows
…
