…
## Summarizing

Like most created Pmetrics objects,
[`PM_pta()`](https://lapkb.github.io/Pmetrics_rust/reference/PM_pta.md)
objects can be summarized.

``` r
pta1$summary()
#> # A tibble: 36 × 5
#>    reg_num label         target type  prop_success
#>      <int> <chr>          <dbl> <chr>        <dbl>
#>  1       1 600 mg daily    0.25 time         1    
#>  2       1 600 mg daily    0.5  time         1    
#>  3       1 600 mg daily    1    time         1    
#>  4       1 600 mg daily    2    time         0.998
#>  5       1 600 mg daily    4    time         0.819
#>  6       1 600 mg daily    8    time         0.343
#>  7       1 600 mg daily   16    time         0.028
#>  8       1 600 mg daily   32    time         0    
#>  9       1 600 mg daily   64    time         0    
#> 10       2 1200 mg daily   0.25 time         1    
#> # ℹ 26 more rows
…
``` r
pta1$summary(ci = 0.9)
#> # A tibble: 36 × 5
#>    reg_num label         target type  prop_success
#>      <int> <chr>          <dbl> <chr>        <dbl>
#>  1       1 600 mg daily    0.25 time         1    
#>  2       1 600 mg daily    0.5  time         1    
#>  3       1 600 mg daily    1    time         1    
#>  4       1 600 mg daily    2    time         0.998
#>  5       1 600 mg daily    4    time         0.819
#>  6       1 600 mg daily    8    time         0.343
#>  7       1 600 mg daily   16    time         0.028
#>  8       1 600 mg daily   32    time         0    
#>  9       1 600 mg daily   64    time         0    
#> 10       2 1200 mg daily   0.25 time         1    
#> # ℹ 26 more rows
```
